{
  "page": 1,
  "per_page": 100,
  "total": 2716,
  "total_pages": 28,
  "posts": [
    {"id": 34899, "title": "誰說老男人沒戲？《NO GOOD！歐吉桑》影帝級演技砸碎平庸爛片死水", "excerpt": "厭倦了平庸爛片？李銘順、李國煌、許效舜合體《NO GOOD！歐吉桑》即將席捲全台。", "date": "2026-03-29T15:59:40", "status": "publish", "author": 125783300, "categories": [96990383], "featured_media": 34902},
    {"id": 34893, "title": "柏克萊才女陳以諾《慢花誌》：跨國陣容重塑客語靈魂樂標竿", "excerpt": "拒絕平庸！柏克萊才女陳以諾攜手國際神級團隊，以《慢花誌》強勢定義母語靈魂樂新高度。", "date": "2026-03-29T15:18:00", "status": "publish", "author": 125783300, "categories": [96987488], "featured_media": 34897},
    {"id": 34888, "title": "2026誠品電影院：賈樟柯、庫柏力克神作大銀幕重映全攻略", "excerpt": "別在爛片裡浪費視網膜！2026誠品電影院迎來賈樟柯、庫柏力克與王家衛的集體轟炸。", "date": "2026-03-29T14:15:00", "status": "publish", "author": 125783300, "categories": [96990387, 96990390], "featured_media": 34892},
    {"id": 34881, "title": "算力階級論：靠 AI IDE 與多 Agent 協作終結 Token 焦慮", "excerpt": "別再盯著 Token 進度條發愁！那是因為你還在用保時捷載水泥。", "date": "2026-03-25T22:46:00", "status": "publish", "author": 125783300, "categories": [96987489], "featured_media": 34886},
    {"id": 34875, "title": "伯朗黑糖奶茶 580ml 35元 | 100%台灣黑糖實測評比", "excerpt": "伯朗黑糖奶茶實測：100%台灣黑糖、580ml 超大杯、35 元破壞價。", "date": "2026-03-25T13:08:00", "status": "publish", "author": 125783300, "categories": [96987489], "featured_media": 34876}
  ]
}
